Design Route Status
                                               :      # nets :
   ------------------------------------------- : ----------- :
   # of logical nets.......................... :         430 :
       # of nets not needing routing.......... :         145 :
           # of internally routed nets........ :         145 :
       # of routable nets..................... :         285 :
           # of fully routed nets............. :         285 :
       # of nets with routing errors.......... :           0 :
   ------------------------------------------- : ----------- :

